<?xml version="1.0" encoding="iso-8859-1"?>
<!-- Generator: Adobe Illustrator 16.0.0, SVG Export Plug-In . SVG Version: 6.00 Build 0)  -->
<!DOCTYPE svg PUBLIC "-//W3C//DTD SVG 1.1//EN" "http://www.w3.org/Graphics/SVG/1.1/DTD/svg11.dtd">
<svg version="1.1" id="Capa_1" xmlns="http://www.w3.org/2000/svg" xmlns:xlink="http://www.w3.org/1999/xlink" x="0px" y="0px"
	 width="219.272px" height="219.271px" viewBox="0 0 219.272 219.271" style="enable-background:new 0 0 219.272 219.271;"
	 xml:space="preserve">
<g>
	<path style="fill:#D32F2F;" d="M120.774,179.271v40c47.303,0,85.784-38.482,85.784-85.785c0-47.3-38.481-85.782-85.784-85.782H89.282L108.7,28.286
		L80.417,0L12.713,67.703l67.703,67.701l28.283-28.284L89.282,87.703h31.492c25.246,0,45.784,20.538,45.784,45.783
		C166.558,158.73,146.02,179.271,120.774,179.271z"/>
</g>
<g>
</g>
<g>
</g>
<g>
</g>
<g>
</g>
<g>
</g>
<g>
</g>
<g>
</g>
<g>
</g>
<g>
</g>
<g>
</g>
<g>
</g>
<g>
</g>
<g>
</g>
<g>
</g>
<g>
</g>
</svg>
